^C:\USERS\STUDENT\DOCUMENTS\VISUAL STUDIO 2012\PROJECTS\SIDDHARTH140905600\WEEK10\CONSOLEAPPLICATION1\CONSOLEAPPLICATION1\SOURCE.CPP
C:\USERS\STUDENT\DOCUMENTS\VISUAL STUDIO 2012\PROJECTS\SIDDHARTH140905600\WEEK10\CONSOLEAPPLICATION1\CONSOLEAPPLICATION1\DEBUG\SOURCE.OBJ
C:\USERS\STUDENT\DOCUMENTS\VISUAL STUDIO 2012\PROJECTS\SIDDHARTH140905600\WEEK10\CONSOLEAPPLICATION1\CONSOLEAPPLICATION1\DEBUG\VC110.PDB
